{
    "version": 2,
    "alias": "mymovies.chr1shaefn3r.dev",
    "rewrites": [
        {
            "source": "/service-worker.js",
            "destination": "/_next/static/service-worker.js"
        }
    ],
    "headers": [
        {
            "source": "/service-worker.js",
            "headers": [
                {
                    "key": "Cache-Control",
                    "value": "public, max-age=43200, immutable"
                },
                {
                    "key": "Service-Worker-Allowed",
                    "value": "/"
                }
            ]
        }
    ],
    "builds": [
        {
            "src": "next.config.js",
            "use": "@vercel/next"
        },
        {
            "src": "api/**/dataCollection/**/index.js",
            "use": "@vercel/node",
            "config": {
                "maxLambdaSize": "50mb"
            }
        },
        {
            "src": "api/**/*.json",
            "use": "@vercel/static"
        }
    ]
}